alu.vcd
$date
	Tue Jul  3 17:44:41 2018
$end
$version
	Icarus Verilog
$end
$timescale
	1s
$end
$scope module dut $end
$scope module myDecoder $end
$var wire 32 ! instruction [31:0] $end
$var wire 26 " target [25:0] $end
$var wire 6 # sa [5:0] $end
$var wire 6 $ sOpcode [5:0] $end
$var wire 5 % rt [4:0] $end
$var wire 5 & rs [4:0] $end
$var wire 5 ' rd [4:0] $end
$var wire 32 ( pc [31:0] $end
$var wire 6 ) opcode [5:0] $end
$var wire 16 * offset [15:0] $end
$var wire 16 + immed [15:0] $end
$var wire 5 , base [4:0] $end
$var reg 1 - ALUSrc $end
$var reg 1 . Branch $end
$var reg 1 / Jump $end
$var reg 1 0 MemEnable $end
$var reg 1 1 MemtoReg $end
$var reg 1 2 RegToImmediate $end
$var reg 1 3 RegWrite $end
$var reg 5 4 address_d [4:0] $end
$var reg 5 5 address_s1 [4:0] $end
$var reg 5 6 address_s2 [4:0] $end
$var reg 6 7 alu_opcode [5:0] $end
$var reg 32 8 immediate [31:0] $end
$var reg 1 9 isByte $end
$var reg 1 : readwrite $end
$upscope $end
$upscope $end
$scope module dut $end
$scope module myRegFile $end
$var wire 5 ; address_d [4:0] $end
$var wire 5 < address_s1 [4:0] $end
$var wire 5 = address_s2 [4:0] $end
$var wire 1 > clock $end
$var wire 1 3 write_enable $end
$var wire 32 ? data_dval [31:0] $end
$var reg 32 @ data_s1val [31:0] $end
$var reg 32 A data_s2val [31:0] $end
$var integer 32 B i [31:0] $end
$upscope $end
$upscope $end
$scope module dut $end
$scope module myAlu $end
$var wire 32 C in_s2 [31:0] $end
$var wire 32 D in_s1 [31:0] $end
$var wire 6 E alu_opcode [5:0] $end
$var reg 1 F Branch $end
$var reg 32 G high [31:0] $end
$var reg 32 H low [31:0] $end
$var reg 64 I mul_res [63:0] $end
$var reg 32 J res [31:0] $end
$var reg 1 K zero $end
$upscope $end
$upscope $end
$scope module dut $end
$scope module myPC $end
$var wire 1 > clock $end
$var wire 32 L nextpc [31:0] $end
$var reg 32 M currentpc [31:0] $end
$upscope $end
$upscope $end
$scope module dut $end
$scope module icache $end
$var wire 1 > clock $end
$var wire 32 N address [31:0] $end
$var reg 32 O data_out [31:0] $end
$var reg 32 P start_address [31:0] $end
$var integer 32 Q i [31:0] $end
$upscope $end
$upscope $end
$scope module dut $end
$var wire 1 R RegToImmediate $end
$var wire 1 K zero $end
$var wire 32 S res [31:0] $end
$var wire 1 : read_write $end
$var wire 32 T pc [31:0] $end
$var wire 32 U nextpc [31:0] $end
$var wire 32 V memory_output [31:0] $end
$var wire 32 W jumpInput [31:0] $end
$var wire 32 X jumpAddress [31:0] $end
$var wire 1 9 isByte $end
$var wire 32 Y instruction [31:0] $end
$var wire 32 Z incrementedpc [31:0] $end
$var wire 32 [ in_s2 [31:0] $end
$var wire 32 \ in_s1 [31:0] $end
$var wire 32 ] immediate [31:0] $end
$var wire 32 ^ data_s2val [31:0] $end
$var wire 32 _ data_dval [31:0] $end
$var wire 32 ` branchingAddress [31:0] $end
$var wire 32 a branchOutput [31:0] $end
$var wire 6 b alu_opcode [5:0] $end
$var wire 5 c address_s2 [4:0] $end
$var wire 5 d address_s1 [4:0] $end
$var wire 5 e address_d [4:0] $end
$var wire 1 3 RegWrite $end
$var wire 1 1 MemtoReg $end
$var wire 1 0 MemEnable $end
$var wire 1 / Jump $end
$var wire 1 . Branch $end
$var wire 1 - ALUSrc $end
$var reg 1 > clock $end
$var integer 32 f i [31:0] $end
$scope module aluInputMux $end
$var wire 1 - sel $end
$var wire 32 g input2 [31:0] $end
$var wire 32 h input1 [31:0] $end
$var reg 32 i output1 [31:0] $end
$upscope $end
$scope module dataCache $end
$var wire 1 > clock $end
$var wire 1 j isByte $end
$var wire 1 : read_write $end
$var wire 1 0 enable $end
$var wire 32 k data_in [31:0] $end
$var wire 32 l address [31:0] $end
$var reg 32 m data_out [31:0] $end
$var reg 32 n start_address [31:0] $end
$upscope $end
$scope module icache $end
$upscope $end
$scope module immediateOuputMux $end
$var wire 1 R sel $end
$var wire 32 o input2 [31:0] $end
$var wire 32 p input1 [31:0] $end
$var reg 32 q output1 [31:0] $end
$upscope $end
$scope module myAlu $end
$upscope $end
$scope module myDecoder $end
$upscope $end
$scope module myPC $end
$upscope $end
$scope module myRegFile $end
$upscope $end
$scope module pcBranchMux $end
$var wire 32 r input1 [31:0] $end
$var wire 32 s input2 [31:0] $end
$var wire 1 . sel $end
$var reg 32 t output1 [31:0] $end
$upscope $end
$scope module pcJumpMux $end
$var wire 32 u input1 [31:0] $end
$var wire 32 v input2 [31:0] $end
$var wire 1 / sel $end
$var reg 32 w output1 [31:0] $end
$upscope $end
$scope module writebackInputMux $end
$var wire 32 x input1 [31:0] $end
$var wire 32 y input2 [31:0] $end
$var wire 1 1 sel $end
$var reg 32 z output1 [31:0] $end
$upscope $end
$upscope $end
$enddefinitions $end
#0
$dumpvars
bx z
bx y
bx x
b10000000000000100000000000001000 w
bx00 v
b10000000000000100000000000001000 u
b10000000000000100000000000001000 t
b10000000000000101111111111110000 s
b10000000000000100000000000001000 r
bx q
b1111111111101000 p
bx o
b10000000000000100000000000000000 n
bx m
bx l
bx k
zj
b1111111111101000 i
bx h
b1111111111101000 g
b0 f
b11101 e
b11101 d
bx c
b0 b
b10000000000000100000000000001000 a
b10000000000000101111111111110000 `
bx _
bx ^
b1111111111101000 ]
bx \
b1111111111101000 [
b10000000000000100000000000001000 Z
b100111101111011111111111101000 Y
bx00 X
bx W
bx V
b10000000000000100000000000001000 U
b10000000000000100000000000000100 T
bx S
zR
b11100 Q
b10000000000000100000000000000000 P
b100111101111011111111111101000 O
b10000000000000100000000000000100 N
b10000000000000100000000000000100 M
b10000000000000100000000000001000 L
xK
bx J
bx I
bx H
bx G
xF
b0 E
bx D
b1111111111101000 C
b100000 B
bx A
bx @
bx ?
1>
bx =
b11101 <
b11101 ;
0:
09
b1111111111101000 8
b0 7
bx 6
b11101 5
b11101 4
13
02
01
00
0/
0.
1-
b11101 ,
b1111111111101000 +
b1111111111101000 *
b1001 )
b10000000000000100000000000000100 (
b11111 '
b11101 &
b11101 %
b101000 $
b11111 #
b11101111011111111111101000 "
b100111101111011111111111101000 !
$end
#5
b0xxxxxxxxxxxxxxxx00 X
b0xxxxxxxxxxxxxxxx00 v
b10000000000000101 ?
b10000000000000101 _
b10000000000000101 z
b0xxxxxxxxxxxxxxxx W
b0xxxxxxxxxxxxxxxx q
0K
b10000000000000101 J
b10000000000000101 S
b10000000000000101 l
b10000000000000101 x
b0xxxxx A
b0xxxxx ^
b0xxxxx h
b0xxxxx k
b0xxxxx o
b11101 @
b11101 D
b11101 \
0>
#10
b0xxxxx00 X
b0xxxxx00 v
b0xxxxx W
b0xxxxx q
b1000 C
b1000 [
b1000 i
b10000000000000100000000000001100 L
b10000000000000100000000000001100 U
b10000000000000100000000000001100 w
b11100 7
b11100 E
b11100 b
b1000 8
b1000 ]
b1000 g
b1000 p
b10 6
b10 =
b10 c
10
1:
03
1-
b101011 )
b11101000100000000000001000 "
b10 %
b0 '
b1000 *
b1000 +
b0 #
b1000 $
b10000000000000100000000000001100 a
b10000000000000100000000000001100 t
b10000000000000100000000000001100 u
b10101111101000100000000000001000 !
b10101111101000100000000000001000 O
b10101111101000100000000000001000 Y
b10000000000000100000000000010100 `
b10000000000000100000000000010100 s
b10000000000000100000000000001100 Z
b10000000000000100000000000001100 r
b10000000000000100000000000001000 (
b10000000000000100000000000001000 M
b10000000000000100000000000001000 N
b10000000000000100000000000001000 T
1>
b1 f
#15
b0x0x000 X
b0x0x000 v
b1101 ?
b1101 _
b1101 z
b0x0x0 W
b0x0x0 q
b1101 J
b1101 S
b1101 l
b1101 x
b10 A
b10 ^
b10 h
b10 k
b10 o
b101 @
b101 D
b101 \
0>
#20
b10000000000000100000000000010000 L
b10000000000000100000000000010000 U
b10000000000000100000000000010000 w
b10000000000000100000000000010000 a
b10000000000000100000000000010000 t
b10000000000000100000000000010000 u
b10000000000000100000000000011000 `
b10000000000000100000000000011000 s
b10000000000000100000000000010000 Z
b10000000000000100000000000010000 r
b10000000000000100000000000001100 (
b10000000000000100000000000001100 M
b10000000000000100000000000001100 N
b10000000000000100000000000001100 T
1>
b10 f
#25
0>
#30
b0xxx000 X
b0xxx000 v
b0xxx0 W
b0xxx0 q
b1100 C
b1100 [
b1100 i
b10000000000000100000000000010100 L
b10000000000000100000000000010100 U
b10000000000000100000000000010100 w
b1100 8
b1100 ]
b1100 g
b1100 p
1:
10
1-
b11101000100000000000001100 "
b1100 *
b1100 +
b1100 $
b10000000000000100000000000010100 a
b10000000000000100000000000010100 t
b10000000000000100000000000010100 u
b10101111101000100000000000001100 !
b10101111101000100000000000001100 O
b10101111101000100000000000001100 Y
b10000000000000100000000000100000 `
b10000000000000100000000000100000 s
b10000000000000100000000000010100 Z
b10000000000000100000000000010100 r
b10000000000000100000000000010000 (
b10000000000000100000000000010000 M
b10000000000000100000000000010000 N
b10000000000000100000000000010000 T
1>
b11 f
#35
0>
#40
b10000000000000100000000000011000 L
b10000000000000100000000000011000 U
b10000000000000100000000000011000 w
b10000000000000100000000000011000 a
b10000000000000100000000000011000 t
b10000000000000100000000000011000 u
b10000000000000100000000000100100 `
b10000000000000100000000000100100 s
b10000000000000100000000000011000 Z
b10000000000000100000000000011000 r
b10000000000000100000000000010100 (
b10000000000000100000000000010100 M
b10000000000000100000000000010100 N
b10000000000000100000000000010100 T
1>
b100 f
#45
0>
#50
b0x0x000 X
b0x0x000 v
b0x0x0 W
b0x0x0 q
bx ?
bx _
bx z
b1000 C
b1000 [
b1000 i
b10000000000000100000000000011100 L
b10000000000000100000000000011100 U
b10000000000000100000000000011100 w
b11011 7
b11011 E
b11011 b
b1000 8
b1000 ]
b1000 g
b1000 p
b11 4
b11 ;
b11 e
11
13
0:
10
1-
b100011 )
b11101000110000000000001000 "
b11 %
b1000 *
b1000 +
b1000 $
b10000000000000100000000000011100 a
b10000000000000100000000000011100 t
b10000000000000100000000000011100 u
b10001111101000110000000000001000 !
b10001111101000110000000000001000 O
b10001111101000110000000000001000 Y
b10000000000000100000000000100100 `
b10000000000000100000000000100100 s
b10000000000000100000000000011100 Z
b10000000000000100000000000011100 r
b10000000000000100000000000011000 (
b10000000000000100000000000011000 M
b10000000000000100000000000011000 N
b10000000000000100000000000011000 T
1>
b101 f
#55
0>
#60
b10000000000000100000000000100000 L
b10000000000000100000000000100000 U
b10000000000000100000000000100000 w
b10000000000000100000000000100000 a
b10000000000000100000000000100000 t
b10000000000000100000000000100000 u
b10000000000000100000000000101000 `
b10000000000000100000000000101000 s
b10000000000000100000000000100000 Z
b10000000000000100000000000100000 r
b10000000000000100000000000011100 (
b10000000000000100000000000011100 M
b10000000000000100000000000011100 N
b10000000000000100000000000011100 T
1>
b110 f
#65
0>
#70
b1101 ?
b1101 _
b1101 z
b10 C
b10 [
b10 i
b10000000000000100000000000100100 L
b10000000000000100000000000100100 U
b10000000000000100000000000100100 w
01
03
00
0-
bx )
bx &
bx ,
bx "
bx %
bx '
bx *
bx +
b0xxxxx #
bx $
b10000000000000100000000000100100 a
b10000000000000100000000000100100 t
b10000000000000100000000000100100 u
bx !
bx O
bx Y
b10000000000000100000000000101100 `
b10000000000000100000000000101100 s
b10000000000000100000000000100100 Z
b10000000000000100000000000100100 r
b10000000000000100000000000100000 (
b10000000000000100000000000100000 M
b10000000000000100000000000100000 N
b10000000000000100000000000100000 T
1>
b111 f
#75
0>
#80
b10000000000000100000000000101000 L
b10000000000000100000000000101000 U
b10000000000000100000000000101000 w
b10000000000000100000000000101000 a
b10000000000000100000000000101000 t
b10000000000000100000000000101000 u
b10000000000000100000000000110000 `
b10000000000000100000000000110000 s
b10000000000000100000000000101000 Z
b10000000000000100000000000101000 r
b10000000000000100000000000100100 (
b10000000000000100000000000100100 M
b10000000000000100000000000100100 N
b10000000000000100000000000100100 T
1>
b1000 f
#85
0>
#90
b10000000000000100000000000101100 L
b10000000000000100000000000101100 U
b10000000000000100000000000101100 w
b10000000000000100000000000101100 a
b10000000000000100000000000101100 t
b10000000000000100000000000101100 u
b10000000000000100000000000110100 `
b10000000000000100000000000110100 s
b10000000000000100000000000101100 Z
b10000000000000100000000000101100 r
b10000000000000100000000000101000 (
b10000000000000100000000000101000 M
b10000000000000100000000000101000 N
b10000000000000100000000000101000 T
1>
b1001 f
#95
0>
#100
b10000000000000100000000000110000 L
b10000000000000100000000000110000 U
b10000000000000100000000000110000 w
b10000000000000100000000000110000 a
b10000000000000100000000000110000 t
b10000000000000100000000000110000 u
b10000000000000100000000000111000 `
b10000000000000100000000000111000 s
b10000000000000100000000000110000 Z
b10000000000000100000000000110000 r
b10000000000000100000000000101100 (
b10000000000000100000000000101100 M
b10000000000000100000000000101100 N
b10000000000000100000000000101100 T
1>
b1010 f
#105
0>
#110
b10000000000000100000000000110100 L
b10000000000000100000000000110100 U
b10000000000000100000000000110100 w
b10000000000000100000000000110100 a
b10000000000000100000000000110100 t
b10000000000000100000000000110100 u
b10000000000000100000000000111100 `
b10000000000000100000000000111100 s
b10000000000000100000000000110100 Z
b10000000000000100000000000110100 r
b10000000000000100000000000110000 (
b10000000000000100000000000110000 M
b10000000000000100000000000110000 N
b10000000000000100000000000110000 T
1>
b1011 f
#115
0>
#120
b10000000000000100000000000111000 L
b10000000000000100000000000111000 U
b10000000000000100000000000111000 w
b10000000000000100000000000111000 a
b10000000000000100000000000111000 t
b10000000000000100000000000111000 u
b10000000000000100000000001000000 `
b10000000000000100000000001000000 s
b10000000000000100000000000111000 Z
b10000000000000100000000000111000 r
b10000000000000100000000000110100 (
b10000000000000100000000000110100 M
b10000000000000100000000000110100 N
b10000000000000100000000000110100 T
1>
b1100 f
#125
0>
#130
b10000000000000100000000000111100 L
b10000000000000100000000000111100 U
b10000000000000100000000000111100 w
b10000000000000100000000000111100 a
b10000000000000100000000000111100 t
b10000000000000100000000000111100 u
b10000000000000100000000001000100 `
b10000000000000100000000001000100 s
b10000000000000100000000000111100 Z
b10000000000000100000000000111100 r
b10000000000000100000000000111000 (
b10000000000000100000000000111000 M
b10000000000000100000000000111000 N
b10000000000000100000000000111000 T
1>
b1101 f
#135
0>
#140
b10000000000000100000000001000000 L
b10000000000000100000000001000000 U
b10000000000000100000000001000000 w
b10000000000000100000000001000000 a
b10000000000000100000000001000000 t
b10000000000000100000000001000000 u
b10000000000000100000000001001000 `
b10000000000000100000000001001000 s
b10000000000000100000000001000000 Z
b10000000000000100000000001000000 r
b10000000000000100000000000111100 (
b10000000000000100000000000111100 M
b10000000000000100000000000111100 N
b10000000000000100000000000111100 T
1>
b1110 f
#145
0>
#150
b10000000000000100000000001000100 L
b10000000000000100000000001000100 U
b10000000000000100000000001000100 w
b10000000000000100000000001000100 a
b10000000000000100000000001000100 t
b10000000000000100000000001000100 u
b10000000000000100000000001001100 `
b10000000000000100000000001001100 s
b10000000000000100000000001000100 Z
b10000000000000100000000001000100 r
b10000000000000100000000001000000 (
b10000000000000100000000001000000 M
b10000000000000100000000001000000 N
b10000000000000100000000001000000 T
1>
b1111 f
#155
0>
#160
b10000000000000100000000001001000 L
b10000000000000100000000001001000 U
b10000000000000100000000001001000 w
b10000000000000100000000001001000 a
b10000000000000100000000001001000 t
b10000000000000100000000001001000 u
b10000000000000100000000001010000 `
b10000000000000100000000001010000 s
b10000000000000100000000001001000 Z
b10000000000000100000000001001000 r
b10000000000000100000000001000100 (
b10000000000000100000000001000100 M
b10000000000000100000000001000100 N
b10000000000000100000000001000100 T
1>
b10000 f
#165
0>
#170
b10000000000000100000000001001100 L
b10000000000000100000000001001100 U
b10000000000000100000000001001100 w
b10000000000000100000000001001100 a
b10000000000000100000000001001100 t
b10000000000000100000000001001100 u
b10000000000000100000000001010100 `
b10000000000000100000000001010100 s
b10000000000000100000000001001100 Z
b10000000000000100000000001001100 r
b10000000000000100000000001001000 (
b10000000000000100000000001001000 M
b10000000000000100000000001001000 N
b10000000000000100000000001001000 T
1>
b10001 f
#175
0>
#180
b10000000000000100000000001010000 L
b10000000000000100000000001010000 U
b10000000000000100000000001010000 w
b10000000000000100000000001010000 a
b10000000000000100000000001010000 t
b10000000000000100000000001010000 u
b10000000000000100000000001011000 `
b10000000000000100000000001011000 s
b10000000000000100000000001010000 Z
b10000000000000100000000001010000 r
b10000000000000100000000001001100 (
b10000000000000100000000001001100 M
b10000000000000100000000001001100 N
b10000000000000100000000001001100 T
1>
b10010 f
#185
0>
#190
b10000000000000100000000001010100 L
b10000000000000100000000001010100 U
b10000000000000100000000001010100 w
b10000000000000100000000001010100 a
b10000000000000100000000001010100 t
b10000000000000100000000001010100 u
b10000000000000100000000001011100 `
b10000000000000100000000001011100 s
b10000000000000100000000001010100 Z
b10000000000000100000000001010100 r
b10000000000000100000000001010000 (
b10000000000000100000000001010000 M
b10000000000000100000000001010000 N
b10000000000000100000000001010000 T
1>
b10011 f
#195
0>
#200
1>
b10100 f
